ISSS608 Visual Analytics and Applications - Take-Home Exercise 1: Ship Performance in the Gulf of Guinea
…
Note

No missing values identified.

However, data wrangling required to exclude categorical features that have “None” indicated. Following code chunks are used to identify records that have “None” indicated in any one of the categorical features and to filter them out from the clean dataset for analysis.

Code

none_vals <- ship_data %>%
  filter(if_any(where(is.factor), ~ . == "None"))

print(none_vals)

# A tibble: 609 × 18
   Date       Ship_Type      Route_Type Engine_Type          Maintenance_Status
   <date>     <fct>          <fct>      <fct>                <fct>             
 1 2023-06-04 Container Ship None       Heavy Fuel Oil (HFO) Critical          
 2 2023-07-30 None           Coastal    Heavy Fuel Oil (HFO) Good              
 3 2023-09-17 Tanker         Long-haul  None                 Good              
 4 2023-10-22 Container Ship None       Diesel               Critical          
 5 2023-10-29 Bulk Carrier   Short-haul Diesel               None              
 6 2023-11-05 None           Coastal    Heavy Fuel Oil (HFO) Good              
 7 2023-11-19 None           Coastal    Diesel               Good              
 8 2023-12-03 None           Coastal    Heavy Fuel Oil (HFO) Critical          
 9 2024-01-14 Bulk Carrier   None       Heavy Fuel Oil (HFO) Critical          
10 2024-03-24 Tanker         None       Steam Turbine        Critical          
# ℹ 599 more rows
# ℹ 13 more variables: Speed_Over_Ground_knots <dbl>, Engine_Power_kW <dbl>,
#   Distance_Traveled_nm <dbl>, Draft_meters <dbl>, Weather_Condition <fct>,
#   Cargo_Weight_tons <dbl>, Operational_Cost_USD <dbl>,
#   Revenue_per_Voyage_USD <dbl>, Turnaround_Time_hours <dbl>,
#   Efficiency_nm_per_kWh <dbl>, Seasonal_Impact_Score <dbl>,
#   Weekly_Voyage_Count <dbl>, Average_Load_Percentage <dbl>
…
